module github.com/dialogbox/hnclient

require (
	github.com/labstack/echo v3.2.1+incompatible
	github.com/labstack/gommon v0.2.7 // indirect
	github.com/mattn/go-colorable v0.0.9 // indirect
	github.com/mattn/go-isatty v0.0.4 // indirect
	github.com/valyala/bytebufferpool v1.0.0 // indirect
	github.com/valyala/fasttemplate v0.0.0-20170224212429-dcecefd839c4 // indirect
	golang.org/x/crypto v0.0.0-20180910181607-0e37d006457b // indirect
	golang.org/x/sys v0.0.0-20180909124046-d0be0721c37e // indirect
)
